<svg width="22" height="43" viewBox="0 0 22 43" fill="none" xmlns="http://www.w3.org/2000/svg">
<path d="M20 41.5L2 21.5L20 1.5" stroke="#0011A2" stroke-width="3" stroke-linecap="round" stroke-linejoin="round"/>
</svg>
